project2/projectfiles/Simulation_Files/xsim_33060.backup.log
#-----------------------------------------------------------
# xsim v2017.4 (64-bit)
# SW Build 2086221 on Fri Dec 15 20:55:39 MST 2017
# IP Build 2085800 on Fri Dec 15 22:25:07 MST 2017
# Start of session at: Tue Apr 21 16:40:42 2026
# Process ID: 33060
# Current directory: C:/CompOrg/project2/ExampleSubmission_v3/Simulation_Files
# Command line: xsim.exe -mode tcl -source {xsim.dir/cpusyssim/xsim_script.tcl}
# Log file: C:/CompOrg/project2/ExampleSubmission_v3/Simulation_Files/xsim.log
# Journal file: C:/CompOrg/project2/ExampleSubmission_v3/Simulation_Files\xsim.jou
#-----------------------------------------------------------
source xsim.dir/cpusyssim/xsim_script.tcl
# xsim {cpusyssim} -autoloadwcfg -runall
Vivado Simulator 2017.4
Time resolution is 1 ps
run -all
------------------------------------
CPUSystem Simulation Started
[PASS] Test No: 1, Component: R2, Actual Value: 0x7777, Expected Value: 0x7777
[PASS] Test No: 1, Component: R2, Actual Value: 0x0000, Expected Value: 0x0000
[PASS] Test No: 2, Component: PC, Actual Value: 0x0011, Expected Value: 0x0011
[PASS] Test No: 3, Component: R1, Actual Value: 0x0000, Expected Value: 0x0000
[PASS] Test No: 3, Component: R2, Actual Value: 0x0001, Expected Value: 0x0001
[PASS] Test No: 3, Component: Z, Actual Value: 0x0001, Expected Value: 0x0001
[PASS] Test No: 4, Component: OutA, Actual Value: 0x0004, Expected Value: 0x0004
[PASS] Test No: 4, Component: ALUOut, Actual Value: 0x0008, Expected Value: 0x0008
[PASS] Test No: 4, Component: R2, Actual Value: 0x0004, Expected Value: 0x0004
[PASS] Test No: 5, Component: PC, Actual Value: 0x364f, Expected Value: 0x364f
[PASS] Test No: 6, Component: R4, Actual Value: 0xf210, Expected Value: 0xf210
[PASS] Test No: 6, Component: AR, Actual Value: 0xf210, Expected Value: 0xf210
[PASS] Test No: 7, Component: R1, Actual Value: 0x0001, Expected Value: 0x0001
CPUSystem Simulation Finished
0 Test Failed
13 Test Passed
------------------------------------
exit
INFO: [Common 17-206] Exiting xsim at Tue Apr 21 16:40:44 2026...
